^C:\USERS\BELYAEV.INTEGRANT\SOURCE\REPOS\MODEL_GENERATOR\MODEL_GENERATOR\PROCESSING\BASIC_PROCESSING.CPP|C:\USERS\BELYAEV.INTEGRANT\SOURCE\REPOS\MODEL_GENERATOR\MODEL_GENERATOR\REAL_TIME_TEST.CPP|C:\USERS\BELYAEV.INTEGRANT\SOURCE\REPOS\MODEL_GENERATOR\MODEL_GENERATOR\SIGNAL_MODEL\SIGNAL_MODEL.CPP
C:\USERS\BELYAEV.INTEGRANT\SOURCE\REPOS\MODEL_GENERATOR\MODEL_GENERATOR\DEBUG\VC142.PDB
C:\USERS\BELYAEV.INTEGRANT\SOURCE\REPOS\MODEL_GENERATOR\MODEL_GENERATOR\DEBUG\VC142.IDB
C:\USERS\BELYAEV.INTEGRANT\SOURCE\REPOS\MODEL_GENERATOR\MODEL_GENERATOR\DEBUG\SIGNAL_MODEL.OBJ
C:\USERS\BELYAEV.INTEGRANT\SOURCE\REPOS\MODEL_GENERATOR\MODEL_GENERATOR\DEBUG\REAL_TIME_TEST.OBJ
C:\USERS\BELYAEV.INTEGRANT\SOURCE\REPOS\MODEL_GENERATOR\MODEL_GENERATOR\DEBUG\BASIC_PROCESSING.OBJ
^C:\USERS\BELYAEV.INTEGRANT\SOURCE\REPOS\MODEL_GENERATOR\MODEL_GENERATOR\PROCESSING\BASIC_PROCESSING.CPP
C:\USERS\BELYAEV.INTEGRANT\SOURCE\REPOS\MODEL_GENERATOR\MODEL_GENERATOR\DEBUG\VC142.PDB
^C:\USERS\BELYAEV.INTEGRANT\SOURCE\REPOS\MODEL_GENERATOR\MODEL_GENERATOR\SIGNAL_MODEL\SIGNAL_MODEL.CPP
C:\USERS\BELYAEV.INTEGRANT\SOURCE\REPOS\MODEL_GENERATOR\MODEL_GENERATOR\DEBUG\VC142.PDB
^C:\USERS\BELYAEV.INTEGRANT\SOURCE\REPOS\MODEL_GENERATOR\MODEL_GENERATOR\REAL_TIME_TEST.CPP
C:\USERS\BELYAEV.INTEGRANT\SOURCE\REPOS\MODEL_GENERATOR\MODEL_GENERATOR\DEBUG\VC142.PDB
C:\USERS\BELYAEV.INTEGRANT\SOURCE\REPOS\MODEL_GENERATOR\MODEL_GENERATOR\DEBUG\VC142.IDB
C:\USERS\BELYAEV.INTEGRANT\SOURCE\REPOS\MODEL_GENERATOR\MODEL_GENERATOR\DEBUG\REAL_TIME_TEST.OBJ
