^C:\USERS\BELYAEV.INTEGRANT\SOURCE\REPOS\MODEL_GENERATOR\MODEL_GENERATOR\DEBUG\BASIC_PROCESSING.OBJ|C:\USERS\BELYAEV.INTEGRANT\SOURCE\REPOS\MODEL_GENERATOR\MODEL_GENERATOR\DEBUG\REAL_TIME_TEST.OBJ|C:\USERS\BELYAEV.INTEGRANT\SOURCE\REPOS\MODEL_GENERATOR\MODEL_GENERATOR\DEBUG\SIGNAL_MODEL.OBJ
C:\USERS\BELYAEV.INTEGRANT\SOURCE\REPOS\MODEL_GENERATOR\DEBUG\MODEL_GENERATOR.EXE
C:\USERS\BELYAEV.INTEGRANT\SOURCE\REPOS\MODEL_GENERATOR\MODEL_GENERATOR\DEBUG\MODEL_GENERATOR.ILK
C:\USERS\BELYAEV.INTEGRANT\SOURCE\REPOS\MODEL_GENERATOR\DEBUG\MODEL_GENERATOR.PDB
