74.308    0.00    -21.62    1    0   #
73.685    0.00    -20.40    1    0   #
73.012    0.00    -18.90    1    0   #
72.372    0.00    -17.30    1    0   #
71.810    0.00    -15.79    1    0   #
71.363    0.00    -14.36    1    0   #
70.896    0.00    -12.65    1    0   #
70.490    0.00    -11.08    1    0   #
70.170    0.00    -9.41    1    0   #
69.879    0.00    -7.86    1    0   #
69.450    0.00    -6.32    1    0   #
68.845    0.00    -4.55    1    0   #
68.112    0.00    -3.28    1    0   #
67.405    0.00    -2.16    1    0   #
66.080    0.00    -0.69    1    0   #
68.372    0.00    -16.22    1    0   #
66.858    0.00    -11.71    1    0   #
66.541    0.00    -10.08    1    0   #
66.084    0.00    -8.25    1    0   #
65.562    0.00    -6.59    1    0   #
64.614    0.00    -4.93    1    0   #
64.721    0.00    0.65    1    0   #
63.329    0.00    -3.23    1    0   #
63.259    0.00    2.01    1    0   #
61.618    0.00    -1.39    1    0   #
61.455    0.00    3.24    1    0   #
60.151    0.00    -0.38    1    0   #
59.615    0.00    4.26    1    0   #
58.476    0.00    0.39    1    0   #
58.215    0.00    4.93    1    0   #
56.511    0.00    1.12    1    0   #
58.789    0.00    -18.96    1    0   #
55.780    0.00    5.48    1    0   #
54.654    0.00    1.57    1    0   #
53.628    0.00    5.83    1    0   #
54.185    0.00    -14.54    1    0   #
54.356    0.00    -19.75    1    0   #
53.507    0.00    -16.76    1    0   #
52.811    0.00    -13.65    1    0   #
51.323    0.00    -1.73    1    0   #
51.502    0.00    1.86    1    0   #
52.811    0.00    -18.78    1    0   #
52.195    0.00    -15.33    1    0   #
53.304    0.00    -21.63    1    0   #
49.827    0.00    -1.73    1    0   #
51.966    0.00    -20.59    1    0   #
50.133    0.00    -16.72    1    0   #
48.387    0.00    -12.17    1    0   #
49.085    0.00    -19.34    1    0   #
48.339    0.00    -17.46    1    0   #
48.071    0.00    -15.69    1    0   #
48.528    0.00    -21.04    1    0   #
45.506    0.00    2.83    1    0   #
46.940    0.00    -20.38    1    0   #
46.043    0.00    -21.80    1    0   #
44.636    0.00    -18.41    1    0   #
43.571    0.00    -14.29    1    0   #
41.045    0.00    -11.78    1    0   #
42.166    0.00    -22.10    1    0   #
41.911    0.00    -19.73    1    0   #
41.440    0.00    -17.32    1    0   #
39.367    0.00    -12.32    1    0   #
40.594    0.00    -22.78    1    0   #
37.397    0.00    -12.96    1    0   #
38.807    0.00    -24.03    1    0   #
34.770    0.00    -10.57    1    0   #
37.046    0.00    -25.22    1    0   #
35.164    0.00    -26.60    1    0   #
33.299    0.00    -28.15    1    0   #
31.669    0.00    -29.64    1    0   #
27.615    0.00    3.95    1    0   #
29.852    0.00    -31.60    1    0   #
26.236    0.00    -16.16    1    0   #
28.151    0.00    -33.75    1    0   #
24.500    0.00    -17.24    1    0   #
26.586    0.00    -35.66    1    0   #
22.756    0.00    -19.13    1    0   #
25.959    0.00    -39.06    1    0   #
20.720    0.00    -20.33    1    0   #
24.762    0.00    -41.61    1    0   #
19.072    0.00    -22.95    1    0   #
23.256    0.00    -44.85    1    0   #
17.135    0.00    -25.49    1    0   #
21.833    0.00    -48.69    1    0   #
16.341    0.00    -30.06    1    0   #
14.506    0.00    -34.18    1    0   #
12.784    0.00    10.36    1    0   #
13.081    0.00    -32.35    1    0   #
9.522    0.00    -42.23    1    0   #
