70.810    0.00    -25.33    1    0   #
70.059    0.00    -24.00    1    0   #
69.288    0.00    -22.47    1    0   #
68.652    0.00    -20.98    1    0   #
68.027    0.00    -19.39    1    0   #
67.365    0.00    -17.76    1    0   #
66.887    0.00    -16.15    1    0   #
66.384    0.00    -14.44    1    0   #
65.978    0.00    -12.74    1    0   #
65.652    0.00    -11.00    1    0   #
65.305    0.00    -9.28    1    0   #
64.905    0.00    -7.58    1    0   #
64.373    0.00    -6.03    1    0   #
63.449    0.00    -4.25    1    0   #
62.161    0.00    -2.54    1    0   #
61.254    0.00    -1.50    1    0   #
64.026    0.00    -18.36    1    0   #
62.264    0.00    -13.28    1    0   #
61.997    0.00    -11.74    1    0   #
61.549    0.00    -9.83    1    0   #
60.990    0.00    -8.13    1    0   #
60.384    0.00    -6.47    1    0   #
59.403    0.00    -5.46    1    0   #
59.900    0.00    -0.10    1    0   #
58.857    0.00    0.88    1    0   #
57.694    0.00    -3.28    1    0   #
57.144    0.00    2.24    1    0   #
55.351    0.00    -1.47    1    0   #
55.539    0.00    3.24    1    0   #
53.430    0.00    -0.44    1    0   #
53.838    0.00    4.10    1    0   #
51.043    0.00    -2.36    1    0   #
51.384    0.00    0.26    1    0   #
51.634    0.00    4.83    1    0   #
53.416    0.00    -19.22    1    0   #
49.450    0.00    -3.78    1    0   #
49.470    0.00    0.69    1    0   #
49.668    0.00    5.16    1    0   #
50.259    0.00    -17.25    1    0   #
48.434    0.00    -2.16    1    0   #
48.054    0.00    0.72    1    0   #
48.120    0.00    5.49    1    0   #
50.195    0.00    -22.82    1    0   #
49.058    0.00    -19.65    1    0   #
48.452    0.00    -17.54    1    0   #
48.671    0.00    -22.00    1    0   #
49.229    0.00    -25.05    1    0   #
48.306    0.00    -23.62    1    0   #
45.775    0.00    -19.47    1    0   #
44.063    0.00    -14.64    1    0   #
44.676    0.00    -22.53    1    0   #
44.084    0.00    -20.47    1    0   #
43.747    0.00    -18.45    1    0   #
44.249    0.00    -24.50    1    0   #
40.890    0.00    1.92    1    0   #
42.539    0.00    -23.31    1    0   #
42.578    0.00    -25.33    1    0   #
40.305    0.00    -19.04    1    0   #
39.107    0.00    -17.22    1    0   #
38.776    0.00    -23.72    1    0   #
37.371    0.00    -20.52    1    0   #
36.260    0.00    -14.53    1    0   #
37.928    0.00    -25.68    1    0   #
34.885    0.00    -15.29    1    0   #
36.353    0.00    -26.86    1    0   #
33.535    0.00    -13.80    1    0   #
32.610    0.00    -16.30    1    0   #
34.542    0.00    -28.35    1    0   #
30.318    0.00    -13.61    1    0   #
32.891    0.00    -29.86    1    0   #
31.037    0.00    -31.64    1    0   #
29.344    0.00    -33.60    1    0   #
23.074    0.00    4.12    1    0   #
27.600    0.00    -35.79    1    0   #
25.970    0.00    -38.44    1    0   #
21.654    0.00    -22.54    1    0   #
24.525    0.00    -41.03    1    0   #
20.104    0.00    -22.55    1    0   #
22.878    0.00    -44.03    1    0   #
18.042    0.00    -25.10    1    0   #
22.159    0.00    -49.30    1    0   #
16.522    0.00    -29.36    1    0   #
14.867    0.00    -33.06    1    0   #
13.610    0.00    -36.79    1    0   #
12.449    0.00    -41.74    1    0   #
8.310    0.00    14.64    1    0   #
11.251    0.00    -47.92    1    0   #
9.775    0.00    -49.56    1    0   #
