60.871    0.00    -20.54    1    0   #
60.255    0.00    -18.80    1    0   #
59.750    0.00    -17.03    1    0   #
59.265    0.00    -15.13    1    0   #
58.883    0.00    -13.20    1    0   #
58.521    0.00    -11.34    1    0   #
58.052    0.00    -9.40    1    0   #
57.518    0.00    -7.69    1    0   #
66.272    0.00    -31.68    1    0   #
65.511    0.00    -30.45    1    0   #
64.736    0.00    -29.14    1    0   #
63.837    0.00    -27.52    1    0   #
63.012    0.00    -25.89    1    0   #
62.261    0.00    -24.18    1    0   #
61.610    0.00    -22.65    1    0   #
56.519    0.00    -5.59    1    0   #
55.302    0.00    -3.85    1    0   #
54.392    0.00    -2.70    1    0   #
61.162    0.00    -29.75    1    0   #
57.400    0.00    -21.42    1    0   #
55.649    0.00    -16.15    1    0   #
55.237    0.00    -14.21    1    0   #
54.783    0.00    -12.14    1    0   #
54.194    0.00    -10.16    1    0   #
53.542    0.00    -8.16    1    0   #
53.084    0.00    -1.05    1    0   #
52.322    0.00    -6.36    1    0   #
51.423    0.00    0.62    1    0   #
50.432    0.00    -4.15    1    0   #
49.260    0.00    -3.20    1    0   #
49.681    0.00    2.04    1    0   #
48.417    0.00    -5.21    1    0   #
47.517    0.00    -1.98    1    0   #
47.733    0.00    3.38    1    0   #
46.873    0.00    -6.39    1    0   #
46.784    0.00    -4.60    1    0   #
46.148    0.00    -1.09    1    0   #
45.561    0.00    -5.63    1    0   #
45.596    0.00    4.32    1    0   #
44.421    0.00    -0.39    1    0   #
43.643    0.00    4.91    1    0   #
45.426    0.00    -19.95    1    0   #
42.400    0.00    0.03    1    0   #
41.285    0.00    5.42    1    0   #
43.481    0.00    -20.60    1    0   #
40.300    0.00    0.14    1    0   #
43.802    0.00    -26.70    1    0   #
42.951    0.00    -23.46    1    0   #
41.787    0.00    -20.36    1    0   #
44.850    0.00    -31.30    1    0   #
43.134    0.00    -29.77    1    0   #
42.081    0.00    -27.61    1    0   #
40.749    0.00    -22.31    1    0   #
39.436    0.00    -24.10    1    0   #
37.918    0.00    -17.81    1    0   #
38.544    0.00    -27.02    1    0   #
37.511    0.00    -24.20    1    0   #
34.011    0.00    1.43    1    0   #
38.124    0.00    -29.40    1    0   #
36.636    0.00    -26.38    1    0   #
36.754    0.00    -31.54    1    0   #
36.081    0.00    -29.28    1    0   #
33.051    0.00    -19.79    1    0   #
32.323    0.00    -22.56    1    0   #
32.559    0.00    -29.64    1    0   #
29.852    0.00    -18.40    1    0   #
32.002    0.00    -32.30    1    0   #
30.830    0.00    -28.48    1    0   #
28.023    0.00    -19.78    1    0   #
30.528    0.00    -33.53    1    0   #
26.068    0.00    -21.02    1    0   #
28.864    0.00    -35.59    1    0   #
23.638    0.00    -18.24    1    0   #
27.199    0.00    -37.95    1    0   #
25.673    0.00    -40.48    1    0   #
24.092    0.00    -43.48    1    0   #
16.113    0.00    4.78    1    0   #
22.592    0.00    -46.78    1    0   #
21.418    0.00    -49.92    1    0   #
15.699    0.00    -33.11    1    0   #
14.322    0.00    -36.51    1    0   #
12.860    0.00    -40.90    1    0   #
11.263    0.00    -47.64    1    0   #
