60.092    0.00    -32.29    1    0   #
58.594    0.00    -30.24    1    0   #
57.486    0.00    -28.62    1    0   #
56.447    0.00    -26.97    1    0   #
55.409    0.00    -25.14    1    0   #
54.589    0.00    -23.59    1    0   #
53.518    0.00    -21.48    1    0   #
52.695    0.00    -19.44    1    0   #
51.932    0.00    -17.49    1    0   #
51.165    0.00    -15.31    1    0   #
50.536    0.00    -13.20    1    0   #
49.972    0.00    -11.02    1    0   #
49.625    0.00    -9.10    1    0   #
49.044    0.00    -6.40    1    0   #
48.550    0.00    -4.10    1    0   #
48.071    0.00    -2.27    1    0   #
47.486    0.00    -0.64    1    0   #
52.570    0.00    -27.67    1    0   #
48.415    0.00    -18.17    1    0   #
46.340    0.00    1.63    1    0   #
46.412    0.00    -12.57    1    0   #
46.032    0.00    -10.79    1    0   #
45.539    0.00    -8.23    1    0   #
45.303    0.00    -6.25    1    0   #
45.474    0.00    3.04    1    0   #
44.535    0.00    4.46    1    0   #
43.414    0.00    -1.45    1    0   #
42.234    0.00    -3.34    1    0   #
42.150    0.00    0.10    1    0   #
43.179    0.00    6.52    1    0   #
48.856    0.00    -32.29    1    0   #
41.124    0.00    -1.95    1    0   #
41.138    0.00    1.70    1    0   #
42.168    0.00    7.87    1    0   #
40.998    0.00    -4.44    1    0   #
40.981    0.00    9.31    1    0   #
39.892    0.00    -3.11    1    0   #
39.587    0.00    3.58    1    0   #
39.184    0.00    11.08    1    0   #
37.637    0.00    5.40    1    0   #
37.355    0.00    12.53    1    0   #
35.711    0.00    6.70    1    0   #
34.775    0.00    -12.12    1    0   #
35.427    0.00    13.60    1    0   #
39.499    0.00    -32.80    1    0   #
33.869    0.00    7.55    1    0   #
34.258    0.00    -20.68    1    0   #
33.439    0.00    14.32    1    0   #
38.112    0.00    -34.34    1    0   #
36.591    0.00    -31.70    1    0   #
35.220    0.00    -27.73    1    0   #
34.846    0.00    -25.31    1    0   #
32.796    0.00    -18.62    1    0   #
31.687    0.00    7.98    1    0   #
33.287    0.00    -24.87    1    0   #
31.825    0.00    14.93    1    0   #
36.688    0.00    -35.68    1    0   #
35.416    0.00    -33.71    1    0   #
34.494    0.00    -29.91    1    0   #
33.280    0.00    -27.95    1    0   #
31.760    0.00    -21.00    1    0   #
30.095    0.00    8.02    1    0   #
30.586    0.00    -23.58    1    0   #
33.716    0.00    -35.16    1    0   #
28.431    0.00    -15.97    1    0   #
32.254    0.00    -35.74    1    0   #
29.753    0.00    -28.29    1    0   #
29.104    0.00    -25.31    1    0   #
29.854    0.00    -33.02    1    0   #
28.286    0.00    -31.05    1    0   #
27.833    0.00    -26.74    1    0   #
24.431    0.00    10.14    1    0   #
29.475    0.00    -35.82    1    0   #
27.748    0.00    -35.47    1    0   #
23.764    0.00    -21.48    1    0   #
24.244    0.00    -32.71    1    0   #
23.896    0.00    -36.43    1    0   #
22.504    0.00    -31.92    1    0   #
21.449    0.00    -22.38    1    0   #
20.445    0.00    -18.69    1    0   #
22.552    0.00    -39.57    1    0   #
18.608    0.00    -22.43    1    0   #
21.220    0.00    -43.21    1    0   #
17.235    0.00    -24.48    1    0   #
19.863    0.00    -47.74    1    0   #
14.547    0.00    -21.27    1    0   #
6.783    0.00    23.92    1    0   #
